ID,Product,Category,Drink Name,Ingredients,Directions,image,order
257,Hot Cinnamon,Flavored Vodkas,Vanilla Spice,"1 oz. Burnett's Hot Cinnamon Vodka
1 oz. Burnett's Vanilla Vodka
4 oz. Cola",Pour ingredients over ice and enjoy.,HotCinn_VanillaSpice.jpg,0
258,Hot Cinnamon,Flavored Vodkas,Hot Shot,1 1/2 oz. Burnett's Hot Cinnamon Vodka,Pour in a shot glass and enjoy!,HotCinn_HotShot.jpg,0
259,Hot Cinnamon,Flavored Vodkas,Hot Russian,"2 oz. Burnett's Hot Cinnamon Vodka
1 oz. Coffee Liqueur
Light Cream",Pour vodka and coffee liqueur over ice cubes in an old-fashioned glass. Fill with light cream and serve.,HotCinn_HotRussian.jpg,0
260,Hot Cinnamon,Flavored Vodkas,Hot Apple Pie,"1 1/2 oz. Burnett's Hot Cinnamon Vodka
1 1/2 oz. Green Apple Schnapps
Apple Cider",Pour vodka and schnapps in rocks glass over ice and top with apple cider.,HotCinn_HotApplePie.jpg,0
261,Hot Cinnamon,Flavored Vodkas,Fiery Moonshine,"One gallon of apple juice
One gallon of apple cider
3 cups of sugar
6 cinnamon sticks
One 750ml bottle of Burnett's Hot Cinnamon Vodka","Pour all ingredients into a large punch bowl, add ice and gently stir. Add cinnamon sticks to garnish.",HotCinn_FieryMoonshine.jpg,0
262,Hot Cinnamon,Flavored Vodkas,Cinn Soda,"1 1/2 oz. Burnett's Hot Cinnamon Vodka
5 oz. Lemon Lime Soda",Pour ingredients in a glass over ice. ,HotCinn_CinnSoda.jpg,0
263,Hot Cinnamon,Flavored Vodkas,Cherry Spice,"1/2 oz. Burnett's Hot Cinnamon Vodka
1/4 oz. Cherry Syrup
Lemon Lime Soda",Pour first two ingredients over ice and top off with lemon lime soda to taste.,HotCinn_CherrySpice.jpg,0
264,Hot Cinnamon,Flavored Vodkas,Apple Pie Spice,"1/2 oz. Burnett's Hot Cinnamon Vodka
1 oz. Spiced Rum
5 oz. Hot Apple Cider",Serve in a mug with a cinnamon stick and apple slice to garnish. ,HotCinn_ApplePieSpice.jpg,0
266,Blue Raspberry,Flavored Vodkas,Blue Breeze,"2 oz. Burnett's Blue Raspberry Vodka
4 oz. Lemonade","Combine ingredients over ice in a small rocks glass, and serve.",BlueRaspberry_BlueBreeze.jpg,0
267,Blue Raspberry,Flavored Vodkas,Ice Pop,"2 oz. Burnett's Blue Raspberry Vodka
6 oz. Lemon-Lime Soda",Combine ingredients in a highball glass filled with ice.,BlueRaspberry_IcePop.jpg,0
268,Blue Raspberry,Flavored Vodkas,Tropical Bliss,"2 oz. Burnett's Blue Raspberry Vodka
1/2 oz. Coconut Rum
3 oz. Lemon-Lime Soda",Combine ingredients in a highball glass filled with ice.,BlueRaspberry_TropicalBliss.jpg,0
269,Blue Raspberry,Flavored Vodkas,Blue Fuzz,"2 oz. Burnett's Blue Raspberry Vodka
1 1/2 oz. Peach Schnapps
Lemon-Lime or Club Soda",Combine the first two ingredients in a highball glass with ice.  Fill with lemon lime or club soda to taste.,BlueRaspberry_BlueFuzz.jpg,0
270,Blue Raspberry,Flavored Vodkas,Mountain Blue-tini,"2 oz. Burnett's Blue Raspberry Vodka
1 oz. Triple Sec
Splash of Lime Juice",Shake with ice and strain into a martini glass.,BlueRaspberry_MountainBluetini.jpg,0
271,Blue Raspberry,Flavored Vodkas,Hawaiian Sunrise,"2 oz. Burnett's Blue Raspberry Vodka
3 oz. Pineapple Juice
Splash of Grenadine",Mix first two ingredients in a glass with ice.  Top with splash of grenadine.,BlueRaspberry_HawaiianSunrise.jpg,0
272,Blue Raspberry,Flavored Vodkas,Cotton Candy,"2 oz. Burnett's Blue Raspberry Vodka
4 oz. Cream Soda",Combine ingredients in a glass filled with ice.,BlueRaspberry_CottonCandy.jpg,0
273,Sugar Cookie,Flavored Vodkas,Mint Chocolate Chip Shooter,"3/4 oz. Burnett's Sugar Cookie Vodka
1/2 oz. Creme de Menthe",Pour ingredients in a shot glass and serve. ,sugar-cooki-mint-chocolate-chip-shooter.jpg,0
274,Sugar Cookie,Flavored Vodkas,Cookies N' Cream,"2 oz. Burnett's Sugar Cookie Vodka
4 oz. Cola 
Dash of Vanilla Extract",Pour vodka and cola over ice in a high ball glass and add vanilla extract. Garnish with chocolate shavings and an Oreo cookie. ,sugar-cooki-cookies-cream2.jpg,0
275,Sugar Cookie,Flavored Vodkas,Sugar Cooki-tini,"1 1/2 oz. Burnett's Sugar Cookie Vodka
1/2 oz. Coffee Liqueur
1 oz. Half and Half
1 1/2 oz. Low Fat Milk",Mix all ingredients in a shaker over ice. Strain into martini glass.,sugar-cooki-tini.jpg,0
276,Sugar Cookie,Flavored Vodkas,Mint Chocolate Cookie,"1/2 oz. Burnett's Sugar Cookie Vodka
1/2 oz. Irish Cream Liqueur
1/2 oz. Peppermint Schnapps",Add equal parts of ingredients in a shaker of ice and strain into a shot glass.,sugar-cookie-mint-chocolate-cookie.jpg,0
277,Sugar Cookie,Flavored Vodkas,Butter Cookie,"1/2 oz. Burnett's Sugar Cookie Vodka
1/2 oz. Irish Cream Liqueur
1/4 oz. Butterscotch Schnapps",Add equal parts of ingredients in a shaker of ice and strain into a shot glass.,sugar-cooki-mint-chocolate-chip-shooter.jpg,0
278,Sugar Cookie,Flavored Vodkas,Chocolate Cookie Martini,"1 1/2 oz. Burnett's Sugar Cookie Vodka
1 oz. Creme de Cacao
3/4 oz. Half and Half",Pour ingredients in a cocktail shaker with ice and shake. Strain into a cocktail glass. Garnish with cookie crumbs.,sugar-cooki-chocolate-cookie-martini.jpg,0
279,Pear,Flavored Vodkas,Pear 'N Fruit,"1 1/2 oz. Burnett's Pear Vodka
2 oz. Grapefruit Juice
1/2 oz. Lemon Juice
1/2 oz. Simple Syrup",Pour ingredients into a shaker full of ice and strain into a cocktail glass. Garnish with a grapefruit slice.,pear-pear-fruit.jpg,0
280,Pear,Flavored Vodkas,Lemon Pear Fizz,"2 oz. Burnett's Pear Vodka
6 oz. Lemon Lime Soda",Pour ingredients into a highball glass over ice.,pear-lemon-pear-fizz.jpg,0
281,Pear,Flavored Vodkas,Sparkling Pears,"1 1/2 oz. Burnett's Pear Vodka
4 oz. Sparkling Water or Club Soda",Serve in a rocks glass over ice.,pear-sparkling-pears.jpg,0
282,Pear,Flavored Vodkas,Champagne Celebration,"1 oz. Burnett's Pear Vodka
1/2 oz. Ginger Liqueur
1/4 oz. Lemon Juice
4 oz. Champagne","Shake vodka, Ginger Liqueur and lemon juice in a shaker with ice. Strain into a champagne flute. Fill with champagne.",pear-champagne-celebration.jpg,0
283,Pear,Flavored Vodkas,Pearetto,"2 oz. Burnett's Pear Vodka
1/4 oz. Amaretto
1/2 oz. Lemon Juice
1/2 oz. Simple Syrup",Pour ingredients into a shaker full of ice and strain into a glass. Garnish with Sliced pear.,pear-pear-fruit.jpg,0
284,Pear,Flavored Vodkas,Pear Berry Cooler,"1 1/2 oz. Burnett's Pear Vodka
1 1/2 oz. Cranberry Juice
1 1/2 oz. Club Soda",Pour ingredients in a lowball glass over ice.,pear-pearberry-cooler.jpg,0
285,Sugar Cookie,Flavored Vodkas,Lemon Bar,"1 1/2 oz. Sugar Cookie Vodka
1 oz. Lemon-Lime Soda
1 oz. Lemonade",Pour in a glass over ice and stir gently.,sugar-cookie-lemon-bar.jpg,0
286,Maple Syrup,Flavored Vodkas,Maple Fudge,"3/4 oz. Burnett's Maple Syrup Vodka
3/4 oz. Creme de Cacao or Chocolate Liqueur",Shake with ice and strain into a shot glass.,maple-fudge.png,0
287,Maple Syrup,Flavored Vodkas,Northern Breakfast,"1 1/2 oz. Burnett's Maple Syrup Vodka
4 oz. Cola
1/2 oz. Peach Schnapps ",Pour ingredients into a glass with ice and stir.,northern-breakfast.png,0
288,Maple Syrup,Flavored Vodkas,Orange Pastry,"3/4 oz. Burnett's Maple Syrup Vodka
3/4 oz. Burnett's Whipped Cream Vodka
4 oz. Orange Juice/Soda
Dash Grenadine",Shake first 3 ingredients over and pour into glass. Top with a dash of grenadine.,orange-pastry.png,0
289,Maple Syrup,Flavored Vodkas,Vermont Cooler,"1 1/2 oz. Burnett's Maple Syrup Vodka
4 oz. Lemon-Lime Soda",Pour the ingredients into a glass with ice and stir.,vermont-cooler.png,0
290,Maple Syrup,Flavored Vodkas,M-apple Fizz,"2 oz. Burnett's Maple Syrup Vodka
3 oz. Sparkling Apple Cider",Pour vodka into flute and add sparkling apple cider to fill. ,m-apple-fizz.png,0
291,Maple Syrup,Flavored Vodkas,Gingersnap,"1 1/2 oz. Burnett's Maple Syrup Vodka
4 oz. Ginger Ale",Pour the ingredients into a glass with ice and stir.,gingersnap.png,0
292,Maple Syrup,Flavored Vodkas,Maple Root Beer,"1 1/2 oz. Burnett's Maple Syrup Vodka 
4 oz. Root Beer",Pour the ingredients into a glass with ice and stir.,maple-root-beer.png,0
293,Maple Syrup,Flavored Vodkas,Maple Mimosa,"1 1/2 oz. Burnett's Maple Syrup Vodka
1 oz. Orange Juice
3 oz. Champagne or Sparkling Wine",Pour vodka and orange juice in flute and add champagne to fill.,maple-mimosa.png,0
294,Maple Syrup,Flavored Vodkas,Maine Champagne,"1 1/2 oz. Burnett's Maple Syrup Vodka
3 oz. Champagne or Sparkling Wine
",Pour vodka in flute and top with chilled Champagne.,maine-champagne.png,0
295,Maple Syrup,Flavored Vodkas,Buttered Pancakes,"3/4 oz. Burnett's Maple Syrup Flavored Vodka
3/4 oz. Burnett's Whipped Cream Flavored Vodka
6 oz. Cola",Build ingredients in a glass filled with ice and stir gently. ,buttered-pancakes.png?v1,0
296,Candy Cane,Flavored Vodkas,Candy Cane,"1 1/2 oz. Burnett's Candy Cane Vodka
1 tsp. Chocolate Syrup",Pour vodka in a shot glass. Top with Chocolate Syrup.,Candy_Cane.jpg,0
297,Candy Cane,Flavored Vodkas,Creme de Candy Cane,"1 1/2 oz. Burnett's Candy Cane Vodka
1 oz. Creme de Cacao
1/4 oz. Grenadine
Half and Half
Lemon-Lime Soda","Pour vodka, Creme de Cacao and grenadine in glass. Fill glass with half and half and top with lemon lime soda.",Creme_de_Candy_Cane.jpg,0
298,Candy Cane,Flavored Vodkas,Winter Fizz,"2 oz. Burnett's Candy Cane Vodka
6 oz. Lemon-Lime Soda",Pour ingredients in a highball glass over ice.,Winter_Fizz.jpg,0
299,Candy Cane,Flavored Vodkas,Holiday Cheer,"2 oz. Burnett's Candy Cane Vodka
8 oz. Hot Chocolate
Whipped Cream to Garnish",Pour ingredients in a tall mug and stir. Top with whipped cream.,holiday-cheer.png,0
300,Candy Cane,Flavored Vodkas,Candy Cola,"2 oz. Burnett's Candy Cane Vodka
6 oz. Cola",Pour ingredients in a highball glass over ice.,Candy_Cola.jpg,0
301,Candy Cane,Flavored Vodkas,Holiday Lemonade,"2 oz. Burnett's Candy Cane Vodka
6 oz. Lemonade ",Pour ingredients in a highball glass over ice.,Holiday_Lemonade.jpg,0
302,Candy Cane,Flavored Vodkas,Girl Scout Cookie,"1/2 oz. Burnett's Candy Cane Vodka
1/2 oz. Irish Cream Liqueur
1/2 oz. Coffee Liqueur",Add equal parts of ingredients in a shaker of ice and strain into a shot glass.,Girl_Scout_Cookie.jpg,0
303,Candy Cane,Flavored Vodkas,Peppermint Milk,"2 oz. Burnett's Candy Cane Vodka
1 oz. Irish Cream Liqueur
1 cup Chocolate Milk","Pour Vodka and Irish Cream Liqueur in a tall glass. In a separate glass, stir chocolate syrup with milk until dissolved. Gently pour chocolate milk into original glass and stir.",Peppermint_Milk.jpg,0
304,Strawberry Banana,Flavored Vodkas,Strawberry Banana Swirl,"1 oz. Burnett's Strawberry Banana Vodka
1/2 oz. Coconut Rum
2 oz. Cranberry Juice",Pour ingredients in a glass filled with ice and stir gently.,PinkLemonade_GingerFusion.jpg,0
305,Strawberry Banana,Flavored Vodkas,Orange Sunrise,"2 oz. Burnett's Strawberry Banana Vodka
3 oz. Orange Juice",Pour ingredients in a highball glass over ice.,Orange_Sunshine.png,0
306,Strawberry Banana,Flavored Vodkas,Strawberry Banana Paradise,"1 1/2 oz. Burnett's Strawberry Banana Vodka
3 oz. Pineapple Juice",Pour ingredients in a glass filled with ice and stir gently.,Coconut_TropicalStorm.jpg,0
307,Strawberry Banana,Flavored Vodkas,Strawberry Banana Twist,"1 1/2 oz. Burnett's Strawberry Banana Vodka
3 oz. Lemon Lime Soda",Pour ingredients in a glass filled with ice and stir gently.,Peach_PeachFizz.jpg,0
308,Cherry Cola,Flavored Vodkas,Club Cola,"1 1/2 oz. Burnett's Cherry Cola Vodka
3 oz. Club Soda
Splash of Grenadine",Pour ingredients in a glass filled with ice and stir gently.,HotCinn_VanillaSpice.jpg,0
309,Cherry Cola,Flavored Vodkas,Whipt Cherry,"1 oz. Burnett's Cherry Cola Vodka
1/2 oz. Burnett's Whipped Cream Vodka
3 oz. Coke",Pour ingredients in a glass filled with ice and stir gently.,WhippedCream_WhipIt.jpg,0
310,Cherry Cola,Flavored Vodkas,Cherry Cola Splash,"1 1/2 oz. Burnett's Cherry Cola Vodka
2 oz. Lemon Lime Soda
Splash of Grenadine",Pour ingredients in a glass filled with ice and stir gently.,Cherry_CherryCoke.jpg,0
311,Cherry Cola,Flavored Vodkas,Cherry Twist,"1 1/2 oz. Burnett's Cherry Cola Vodka
3 oz. Cranberry Juice
Splash of Lime Juice",Pour ingredients in a glass filled with ice and stir gently.,Cherry_CherryCoke.jpg,0
312,Cherry Cola,Flavored Vodkas,Classic Cola,"2 oz. Burnett's Cherry Cola Vodka
2 oz. Coke",Pour ingredients in a highball glass over ice.,buttered-pancakes.png,0
313,Cherry Cola,Flavored Vodkas,Cherry Coke Float,"1 1/2 oz. Burnett's Cherry Cola Vodka
3 oz. Cola
1 scoop ice cream (optional)",Pour ingredients into a glass with ice and stir. Top with ice cream if desired.,WhippedCream_RootBeerFloat.jpg,0
314,Blackberry,Flavored Vodkas,Berry Lemonade,"1 1/2 oz. Burnett's Blackberry Vodka
1/2 oz. Raspberry Schnapps
4 oz. Lemonade",Mix ingredients in a shaker then pour over ice.,Berry-Lemonade.jpg,0
315,Blackberry,Flavored Vodkas,Very Berry Cocktail,"3 oz. Burnett's Blackberry Vodka
4 oz. Cranberry Juice
Splash of lime juice",Pour ingredients in a highball glass over ice.,Limeade_CherryLimeade.jpg,0
316,Blackberry,Flavored Vodkas,Blackberry Bliss,"2 1/2 oz. Burnett's Blackberry Vodka
1 oz. Orange Juice
1 oz. Pineapple Juice
2 oz. Club Soda
4 Blackberries",Muddle blackberries in bottom of a rocks glass. Add ice and pour ingredients into glass. Stir gently.,BlackberryBliss.jpg,0
317,Blackberry,Flavored Vodkas,Blackberry Soda,"2 oz. Burnett's Blackberry Vodka
4 oz. Lemon Lime Soda",Pour ingredients in a highball glass over ice.,Winter_Fizz.jpg,0
318,Tropical Fruit,Flavored Vodkas,Tropical Punch,"2 oz. Burnett's Tropical Fruit Vodka
1 1/2 oz. Pineapple Juice
1 1/2 oz. Orange Juice",Pour ingredients in a glass filled with ice and stir gently.,OrangeCream_TangerineDream.jpg,0
319,Tropical Fruit,Flavored Vodkas,Tropi-Cran,"1 oz. Burnett's Tropical Fruit Vodka
3 oz. Cranberry Juice",Pour ingredients in a highball glass over ice.,Limeade_CherryLimeade.jpg,0
320,Tropical Fruit,Flavored Vodkas,Tropical Breeze,"1 oz. Burnett's Tropical Fruit Vodka
1/2 oz. Burnett's Coconut Vodka
3 oz. Orange Juice",Pour ingredients in a glass filled with ice and stir gently.,OrangeCream_OrangeCreamsicle.jpg,0
256,Citrus,Flavored Vodkas,Classic Lemonade,"2 oz. Burnett's Citrus Vodka
Sweet & Sour Mix
Lemon-Lime Soda",Pour citrus vodka over ice. Fill glass with sour mix and top off with lemon-lime soda.,Citrus_ClassicLemonade.jpg,1
1,Citrus,Flavored Vodkas,Citrus Cooler,"1 1/2 oz. Burnett's Citrus Vodka
Equal parts Lemonade, Cranberry Juice and Club Soda","Pour ingredients over ice in a tall glass, stir and garnish with a lemon wedge.",Citrus_CitrusCooler.jpg,1
2,Citrus,Flavored Vodkas,Lemon Drop   ,"1 1/2 oz. Burnett's Citrus Vodka
1 tsp. Sugar
1/4 oz. Fresh Lemon Juice",Place ingredients in a shaker with ice. Shake and strain into a chilled martini glass rimmed with sugar.,Citrus_LemonDrop.jpg,2
3,Citrus,Flavored Vodkas,Sunset,"1 1/2 oz. Burnett's Citrus Vodka
2 1/2 oz. Lemonade
2 1/2 oz. Cranberry Juice",Combine all ingredients in a tall glass and stir.  Garnish with a lemon.,Citrus_Sunset.jpg,3
4,Citrus,Flavored Vodkas,Citrus Mojito,"2 parts Burnett's Citrus Vodka
1/2 Fresh Lime
5-6 Mint Leaves
1 tsp. Sugar
Splash of Club Soda","Place mint, sugar and juice from half lime in a glass. Crush well with back of spoon.  Fill glass with ice. Add vodka and top with club soda.  ",Citrus_CitrusMojito.jpg,4
5,Citrus,Flavored Vodkas,Russian Ice Tea,"1 part Burnett's Citrus Vodka
3 parts Iced Tea
Splash of Triple Sec",Pour vodka over ice in a tall glass.  Fill the glass with iced tea and top off with triple sec.,Citrus_RussianIceTea.jpg,5
6,Citrus,Flavored Vodkas,Blue Ice Martini,"3/4 oz. Burnett's Citrus Vodka
3/4 oz. Burnett's Raspberry Vodka
Splash of Blue Curacao
Splash of Triple Sec
Splash Sweet & Sour Mix",Shake with ice.  Pour into Martini glass.,Citrus_BlueIceMartini.jpg,6
7,Citrus,Flavored Vodkas,Pink Lemon Fizz,"2 oz. Burnett's Citrus Vodka
1/2 oz. PAMA Pomegranate Liqueur
Fill with equal parts Lemon-Lime Soda and Sweet & Sour Mix",Build in tall glass.  Top off with PAMA and garnish with lemon wedge.,Citrus_PinkLemonFizz.jpg,7
8,Orange,Flavored Vodkas,Burnett's Orange Slice,"1 1/2 oz. Burnett's Orange Vodka
Lemonade
Splash of Club Soda","Pour vodka in a tall glass over ice.  Fill with lemonade and add a splash of club soda.  
Garnish with an orange slice.",Orange_BurnettsOrangeSlice.jpg,8
9,Orange,Flavored Vodkas,Burnett's Orange Fizz,"1 oz. Burnett's Orange Vodka
1 oz. Burnett's Vanilla Vodka
Club Soda",Serve over ice in rocks glass and top off with club soda.,Orange_BurnettsOrangeFizz.jpg,9
10,Orange,Flavored Vodkas,Orange Blossom,"1 oz. Burnett's Orange Vodka
1 oz. Triple Sec
4 oz. Orange Juice","Shake with ice, strain and serve in a chilled martini glass.   ",Orange_OrangeBlossom.jpg,10
11,Orange,Flavored Vodkas,Burnett's Orange Splash,"1 1/2 oz. Burnett's Orange Vodka
5 oz. Tonic Water","Pour ingredients over ice, stir and enjoy.",Orange_BurnettsOrangeSplash.jpg,11
12,Orange,Flavored Vodkas,Orange Sunset,"2 oz. Burnett's Orange Vodka
2 oz. Lemonade
2 oz. Orange Juice
2 oz. Cranberry Juice",Shake over ice and serve on the rocks.  ,Orange_OrangeSunset.jpg,12
13,Orange,Flavored Vodkas,Orange Russian Ice Tea,"1 oz. Burnett's Orange Vodka
1 1/2 oz. Orange Juice
2 1/2 oz. Iced Tea",Shake over ice and serve on the rocks.  ,Orange_OrangeRussianIceTea.jpg,13
14,Orange,Flavored Vodkas,Orange Soda Vodka Collins,"2 oz. Burnett's Orange Vodka
2 oz. Sweet & Sour Mix
2 oz. Orange Soda
2 oz. Lemon-Lime Soda",Shake over ice and serve on the rocks.  ,Orange_OrangeSodaVodka.jpg,14
15,Orange,Flavored Vodkas,Original Orange Crush ,"1 part Burnett's Orange Vodka
1 part Triple Sec 
Fresh squeezed Oranges",Combine ingredients in a shaker with crushed ice.  Shake and strain into a chilled martini glass.  Garnish with an orange wedge.,Orange_OriginalOrangeCrush.jpg,15
16,Raspberry,Flavored Vodkas,The Anonymous Cocktail,"1 oz. Burnett's Raspberry Vodka
1 oz. Raspberry Liqueur
1/2 oz. Triple Sec
Splash of Sweet & Sour Mix
4 oz. Cranberry Juice",Shake with ice and pour into tall glass with ice.,Raspberry_AnonymousCocktail.jpg,16
17,Raspberry,Flavored Vodkas,Burnett's Raspberry Truffle,"1 oz. Burnett's Raspberry Vodka
1/2 oz. Chocolate Liqueur",Pour chilled ingredients into a brandy snifter and enjoy.,Raspberry_RaspberryTruffle.jpg,17
18,Raspberry,Flavored Vodkas,Burnett's Raspberry Fizz,"1 1/2 oz. Burnett's Raspberry Vodka
5 oz. Lemon-Lime Soda","Pour ingredients over ice, stir and enjoy.",Raspberry_RaspberryFizz.jpg,18
19,Raspberry,Flavored Vodkas,October Sky,"1 1/2 oz. Burnett's Raspberry Vodka
3 oz. Lemonade
1 1/2 oz. Orange Juice",Shake with ice and serve on the rocks.,Raspberry_OctoberSky.jpg,19
20,Raspberry,Flavored Vodkas,Old Hag's Cackle,"2 oz. Burnett's Raspberry Vodka
2 oz. Lemonade
2 oz. Coke ",Shake with ice and serve on the rocks.  ,Raspberry_OldHagsCocktail.jpg,20
21,Raspberry,Flavored Vodkas,Raspberry Mai Tai,"2 oz. Burnett's Raspberry Vodka
2 oz. Pineapple Juice
2 oz. Orange Juice",Shake with ice and serve on the rocks.,Raspberry_RaspberryMaiTai.jpg,21
22,Raspberry,Flavored Vodkas,Raspberry Pucker,"2 oz. Burnett's Raspberry Vodka
1 oz. Cherry Juice
Grapefruit Juice",Shake with ice and serve on the rocks. Fill glass with grapefruit juice.,Raspberry_RaspberryPucker.jpg,22
23,Raspberry,Flavored Vodkas,Raspberry Breeze,"2 oz. Burnett's Raspberry Vodka
2 oz. Pineapple Juice
2 oz. Cranberry Juice",Shake over ice and serve on the rocks. ,Raspberry_RaspberryBreeze.jpg,23
24,Raspberry,Flavored Vodkas,Raspberry Dreamsicle,"2 oz. Burnett's Raspberry Vodka
1 oz. Cream
1 1/2 oz. Orange Juice
1 1/2 oz. Pineapple Juice",Shake with ice and serve on the rocks.  ,Raspberry_RaspberryDreamsicle.jpg,24
25,Raspberry,Flavored Vodkas,Raspberry Kool-Aide,"2 oz. Burnett's Raspberry Vodka
1 oz. Lemon-Lime Soda
1 oz. Pineapple Juice
1 oz. Cranberry Juice",Shake with ice and serve on the rocks.,Raspberry_RaspberryKoolade.jpg,25
26,Raspberry,Flavored Vodkas,Raspberry Lifesaver,"1 oz. Burnett's Raspberry Vodka
1 oz.  Coconut Rum
1 oz. Melon Liqueur  
1 oz. Sweet & Sour Mix
1 oz. Pineapple Juice",Shake with ice and serve on the rocks. ,Raspberry_RaspberryLifesaver.jpg,26
27,Vanilla,Flavored Vodkas,Burnett's Vanilla Bean,"1 oz. Burnett's Vanilla Vodka
1 oz. Lemon-Lime Soda",Stir with ice and serve on the rocks.,Vanilla_VanillaBean.jpg,27
28,Vanilla,Flavored Vodkas,Vanilla Apple Juice,"2 oz. Burnett's Vanilla Vodka
Apple Juice",Pour vodka over ice and fill with apple juice.,Vanilla_Vanilla_AppleJuice.jpg,28
29,Vanilla,Flavored Vodkas,Vanilla Pina Colada,"1 oz. Burnett's Vanilla Vodka
1 oz. Coconut Rum
3 oz. Pina Colada Mix
3 oz. Pineapple Juice",Blend ingredients in blender with ice and serve frozen in a hurricane glass.,Vanilla_VanillaPinaColada.jpg,29
30,Vanilla,Flavored Vodkas,Vanilla Summer in the City,"1 oz. Burnett's Vanilla Vodka
1 oz. White Rum
2 oz. Lemonade
2 oz. Iced Tea",Shake over ice and serve on the rocks.  ,Vanilla_VanillaSummerInTheCity.jpg,30
31,Vanilla,Flavored Vodkas,Boston Cream Pie,"1/2 oz. Burnett's Vanilla Vodka
1/2 oz. Irish Cream Liqueur
1/2 oz. Dark Creme de Curacao","Pour over ice, shake and strain into shot glass.  Top with whipped cream.",Vanilla_BostonCreamPie.jpg,31
32,Vanilla,Flavored Vodkas,Key Lime Pie,"2 oz. Burnett's Vanilla Vodka
1 oz. Rose's Lime Juice",Chill ingredients and serve.,Vanilla_KeyLimePie.jpg,32
33,Sour Apple,Flavored Vodkas,Sour Apple Drop,"1 oz. Burnett's Sour Apple Vodka
1 oz. Melon Liqueur
Splash of Sweet & Sour Mix
Lemon-Lime Soda",Serve over ice in a highball glass and fill with lemon-lime soda.,SourApple_SourAppleDrop.jpg,33
34,Sour Apple,Flavored Vodkas,Appletini ,"2 oz. Burnett's Sour Apple Vodka
1/2 oz. Sweet & Sour Mix",Shake with cracked ice and strain into cocktail glass.,SourApple_Appletini.jpg,34
35,Sour Apple,Flavored Vodkas,Apple Hawaiian Fizz,"2 oz. Burnett's Sour Apple Vodka
1 oz. Sweet & Sour Mix
1 1/2 oz. Pineapple Juice
1 1/2 oz. Lemon-Lime Soda",Shake over ice and serve on the rocks.  ,SourApple_AppleHawaiianFizz.jpg,35
36,Sour Apple,Flavored Vodkas,Apple Breeze ,"1 1/2 oz. Burnett's Sour Apple Vodka
1 oz. Pineapple Juice
1 oz. Cran-Apple Juice",Shake with ice and strain into a chilled martini glass.,SourApple_AppleBreeze.jpg,36
37,Sour Apple,Flavored Vodkas,Apple Kamikaze,"1 oz. Burnett's Sour Apple Vodka
Sweet & Sour Mix",Shake with ice and serve straight up in a low ball glass.  Top with sweet & sour mix. ,SourApple_AppleKamikaze.jpg,37
38,Coconut,Flavored Vodkas,Blue Hawaiian,"1 1/2 oz. Burnett's Coconut Vodka
1/2 oz. Blue Curacao
5 oz. Pineapple Juice",Shake and pour over ice into hurricane glass.  Garnish with a pineapple.,Coconut_BlueHawaiian.jpg,38
39,Coconut,Flavored Vodkas,Coco Beach,"1 oz. Burnett's Coconut Vodka
1/2 oz. Amaretto Liqueur
3 oz. Orange Juice
1/2 oz. Grenadine","Combine first three ingredients over ice, top with grenadine.",Coconut_CocoBeach.jpg,39
40,Coconut,Flavored Vodkas,Coconut Mai Tai,"1 oz. Burnett's Coconut Vodka
2 oz. Pina Colada Mix
1 1/2 oz. Pineapple Juice
1 1/2 oz. Orange Juice",Shake over ice and serve on the rocks,Coconut_CoconutMaiTai.jpg,40
41,Coconut,Flavored Vodkas,Coconut Dreamsicle,"2 oz. Burnett's Coconut Vodka
1 oz. Coconut Rum
1 oz. Cream
1 1/2 oz. Orange Juice
1 1/2 oz. Pineapple Juice",Shake over ice and serve on the rocks.  ,Coconut_CoconutDreamsicle.jpg,41
42,Coconut,Flavored Vodkas,Coconut Fizz,"2 oz. Burnett's Coconut Vodka
1 oz. Sweet & Sour Mix
1 1/2 oz. Orange Juice
1 1/2 oz. Lemon-Lime Soda",Shake over ice and serve on the rocks.  ,Coconut_CoconutFizz.jpg,42
43,Coconut,Flavored Vodkas,Tropical Storm,"1 1/2 oz. Burnett's Coconut Vodka
2 oz. Pineapple Juice
Splash Lime Juice
Club Soda",Shake with ice and serve on the rocks. Top off with club soda.,Coconut_TropicalStorm.jpg,43
44,Lime,Flavored Vodkas,Sublime Cosmo,"1 oz. Burnett's Lime Vodka
3/4 oz. Dubonnet Rouge
3/4 oz. Triple Sec
2 oz. Cranberry Juice","Shake with cracked ice, strain into cocktail glass, garnish with a twist of lime.  ",Lime_SublimeCosmo.jpg,44
45,Lime,Flavored Vodkas,Lime and Tonic,"1 1/2 oz. Burnett's Lime Vodka
Tonic Water","In a tall glass, pour vodka over ice and fill glass with tonic water.  Garnish with lime wedge. ",Lime_LimeAndTonic.jpg,45
46,Lime,Flavored Vodkas,Double Lime Margarita,"2 oz. Burnett's Lime Vodka
1 oz. Triple Sec
1 oz. Lime Juice","In a shaker with ice, combine all ingredients, shake well and strain or pour into a salt-rimmed martini glass.  Combine in a blender for a frozen twist.  ",Lime_DoubleLimeMargarita.jpg,46
47,Lime,Flavored Vodkas,Lime Fizz,"1 1/2 oz. Burnett's Lime Vodka
Lemon-Lime Soda","In a tall glass, pour vodka over ice and fill with lemon-lime soda.  Garnish with a lime twist.  ",Lime_LimeFizz.jpg,47
48,Cranberry,Flavored Vodkas,Tropical Madras,"2 oz. Burnett's Cranberry Vodka
2 oz. Pineapple Juice
2 oz. Orange Juice",Shake ingredients and pour over ice into highball glass.  Garnish with an orange slice.  ,Cranberry_TropicalMadras.jpg,48
49,Cranberry,Flavored Vodkas,Cranberry Coco Fizz,"2 oz. Burnett's Cranberry Vodka
1 oz. Coconut Rum
2 oz. Lemon-Lime Soda
Splash Cranberry Juice",Shake ingredients and pour into martini glass.  Garnish with a lime twist.  ,Cranberry_CocoFizz.jpg,49
50,Cranberry,Flavored Vodkas,Killer Cape Cod,"2 oz. Burnett's Cranberry Vodka
1 oz. Coconut Rum
1 oz. White Cranberry Juice",Shake ingredients with ice and pour into martini glass.  Garnish with a lime twist.  ,Cranberry_KillerCapeCod.jpg,50
51,Cherry,Flavored Vodkas,Burnett's Very Cherry ,"1 1/2 oz. Burnett's Cherry Vodka
4 1/2 oz. Tonic",Pour over ice and garnish with a lime wedge.,Cherry_BurnettsVeryCherry.jpg,51
52,Cherry,Flavored Vodkas,Cherry Coke,"1 1/2 oz. Burnett's Cherry Vodka
4 1/2 oz. Coke",Pour over ice and garnish with a cherry.  ,Cherry_CherryCoke.jpg,52
53,Cherry,Flavored Vodkas,Cherry Fizz,"1 1/2 oz Burnett's Cherry Vodka
4 1/2 oz. Lemon-Lime Soda",Pour over ice and garnish with a lime and cherry.  ,Cherry_CherryFizz.jpg,53
54,Cherry,Flavored Vodkas,Burnett's Cherry Martini,"2 oz. Burnett's Cherry Vodka
1 oz. Burnett's Lime Vodka
Splash of Lime Juice",Shake over ice and strain into a chilled martini glass.  ,Cherry_CherryMartini.jpg,54
55,Cherry,Flavored Vodkas,Cherry Breeze,"2 oz. Burnett's Cherry Vodka
2 oz. Pineapple Juice
2 oz. Cranberry Juice",Shake over ice and serve on the rocks. ,Cherry_CherryBreeze.jpg,55
56,Cherry,Flavored Vodkas,Pink Lemonade,"2 oz. Burnett's Cherry Vodka
4 oz. Pink Lemonade",Pour over ice and garnish with a cherry.  ,Cherry_PinkLemonade.jpg,56
57,Watermelon,Flavored Vodkas,Burnett's Melontini,"1 oz. Burnett's Watermelon Vodka
1 oz. Burnett's Citrus Vodka
1/2 oz. White Cranberry Juice",Shake over ice and strain into chilled martini glass.  ,Watermelon_BurnettsMelontini.jpg,57
58,Watermelon,Flavored Vodkas,Watermelon Cosmo,"1 1/2 oz. Burnett's Watermelon Vodka
1/2 oz. Triple Sec
1 oz. Cranberry Juice",Shake over ice and strain into a chilled martini glass.,Watermelon_WatermelonCosmo.jpg,58
59,Watermelon,Flavored Vodkas,Burnett's Watermelon 'Rita,"1 oz. Burnett's Watermelon Vodka
1 oz. Two Fingers Tequila
2 oz. Sweet & Sour Mix",Shake and pour into margarita glass over ice.  Can be served frozen.  ,Watermelon_Watermelonrita.jpg,59
60,Watermelon,Flavored Vodkas,Watermelon Fizz,"2 1/2 oz. Burnett's Watermelon Vodka
6 oz. Lemon-Lime Soda",Pour vodka over ice and fill glass with lemon-lime soda.,Watermelon_WatermelonFizz.jpg,60
61,Watermelon,Flavored Vodkas,Watermelon Cooler,"2 oz. Burnett's Watermelon Vodka
4 oz. Cranberry Juice",Pour over ice and mix well.  ,Watermelon_WatermelonCooler.jpg,61
62,Watermelon,Flavored Vodkas,Kiss the Floor,"1/2 oz. Burnett's Watermelon Vodka
1 oz. PAMA Pomegranate Liqueur
1 oz. Lime Juice
1/2 oz. Simple Syrup",Combine ingredients in a shaker with ice.  Shake and strain into glass with ice.,Watermelon_KissTheFloor.jpg,62
63,Watermelon,Flavored Vodkas,Watermelon Splash,"2 oz. Burnett's Watermelon Vodka
4 oz. Club Soda",Pour vodka over ice and fill glass with club soda.,Watermelon_WatermelonSplash.jpg,63
64,Mango,Flavored Vodkas,Mango Cosmo,"2 oz. Burnett's Mango Vodka
1/2 oz. Triple Sec
1/2 oz. White Cranberry Juice
Splash of Lime Juice",Shake ingredients over ice and strain into a chilled martini glass.  ,Watermelon_WatermelonCosmo.jpg,64
65,Mango,Flavored Vodkas,Margarita Mango ,"2 oz. Burnett's Mango Vodka
2 oz. Sweet & Sour Mix
1/2 oz. Triple Sec",Blend with ice and serve in margarita glass.  ,Mango_MargaritaMango.jpg,65
66,Mango,Flavored Vodkas,Mango Breeze,"2 oz. Burnett's Mango Vodka
1 1/2 oz. Coconut Rum
2 oz. Pineapple Juice
1 oz. Cranberry Juice",Shake with ice and serve on the rocks.  ,Mango_MangoBreeze.jpg,66
67,Mango,Flavored Vodkas,Mangotini,"2 oz. Burnett's Mango Vodka
1 oz. Burnett's Lime Vodka
2 oz. Cranberry Juice
Splash of Lime Juice",Shake over ice and strain into a chilled martini glass.  ,Mango_Mangotini.jpg,67
68,Mango,Flavored Vodkas,Mango Sunset,"1 1/2 oz. Burnett's Mango Vodka
2 oz. Orange Juice
2 oz. Cranberry Juice",Shake over ice and pour into glass.,Mango_MangoSunset.jpg,68
69,Mango,Flavored Vodkas,Mango Passion,"1 1/2 oz. Burnett's Mango Vodka
5 oz. Pineapple Juice",Combine in a glass over ice.  Stir well.  ,Mango_MangoPassion.jpg,69
70,Mango,Flavored Vodkas,Mango Fizz,"2 1/2 oz. Burnett's Mango Vodka
6 oz. Lemon Lime Soda",Serve over ice and garnish with a lime wedge.  ,Mango_MangoFizz.jpg,70
71,Mango,Flavored Vodkas,Mango Tango Lemonade ,"1 1/4 oz. Burnett's Mango Vodka
3 oz. Lemonade 
1 oz. Cranberry Juice",Serve over ice and garnish with a lemon wedge.  ,Mango_MangoTangoLemonade.jpg,71
72,Mango,Flavored Vodkas,Mango Razz Matazz,"1 1/2 oz. Burnett's Mango Vodka
1/2 oz. Burnett's Raspberry Vodka
3 oz. Pineapple Juice
1 oz. Cranberry Juice",Serve over ice and garnish with a lime wedge.  ,Mango_MangoRazzMatazz.jpg,72
73,Mango,Flavored Vodkas,Burnett's Mango Cocktail ,"1 1/2 oz. Burnett's Mango Vodka
1/2 oz. Orange Liqueur
3 oz. Ginger Ale","Pour first two ingredients in a shaker with ice, shake and strain over ice.  Top with Ginger Ale.",Mango_BurnettsMangoCoctail.jpg,73
74,Peach,Flavored Vodkas,Peach Fizz,"2 1/2 oz. Burnett's Peach Vodka
6 oz. Lemon-Lime Soda",Serve over ice and garnish with a lime wedge.  ,Peach_PeachFizz.jpg,74
75,Peach,Flavored Vodkas,Burnett's Bellini ,"1 oz. Burnett's Peach Vodka
1/2 oz. Peach Schnapps
Champagne",Pour vodka and schnapps into champagne glass and top with champagne.  Garnish with a peach wedge.  ,Peach_BurnettsBellini.jpg,75
76,Peach,Flavored Vodkas,Tropical Peach Martini,"2 oz. Burnett's Peach Vodka
2 oz. Coconut Rum
2 oz. Ginger Ale",Shake with ice and strain into a cocktail glass.  Garnish with a cherry.  ,Peach_TropicalPeachMartini.jpg,76
77,Peach,Flavored Vodkas,Fuzzy Peach,"2 oz. Burnett's Peach Vodka
2 oz. Peach Schnapps
6 oz. Orange Juice",Serve over ice in a highball glass.  ,Peach_FuzzyPeach.jpg,77
78,Peach,Flavored Vodkas,Blue Peach Martini,"1 oz. Burnett's Peach Vodka
1 oz. Hpnotiq
1 oz. Lemonade ",Shake over ice and strain into cocktail glass.  ,Peach_BluePeachMartini.jpg,78
79,Grape,Flavored Vodkas,Grape-Fruity Cooler,"2 oz. Burnett's Grape Vodka
4 oz. Grapefruit Juice
Splash of Grenadine",Mix ingredients in a glass filled with ice and garnish with a lime wedge.,Grape_GrapeFruityCooler.jpg,79
80,Grape,Flavored Vodkas,Double Purple Tickler,"3 oz. Burnett's Grape Vodka
1/2 oz. Blue Curacao
1/2 oz. Grenadine
1/2 oz. Club Soda",Shake first 3 ingredients over ice and strain into a chilled martini glass. Add a splash of club soda and garnish with an orange wedge. ,Grape_DoublePurpleTickler.jpg,80
81,Grape,Flavored Vodkas,Grape Fizz,"2 1/2 oz. Burnett's Grape Vodka 
6 oz. Lemon-Lime Soda",Serve over ice and garnish with a lime wedge,Grape_GrapeFizz.jpg,81
82,Grape,Flavored Vodkas,Purple 'n' Spice,"1 c. Burnett's Grape Vodka
1 c. Apple Cider
1 tsp. Lemon Juice
1/4 tsp. Cinnamon","Place all ingredients into a blender jar. Cover, and blend on medium speed until well blended. Pour into a Collins glass, and serve.",Grape_PurpleAndSpice.jpg,82
83,Blueberry,Flavored Vodkas,Berry Tropical ,"1 oz. Burnetts Blueberry Vodka 
1 oz. Coconut Rum 
1/2 oz. Grenadine 
1 oz. Pineapple Juice ","Shake with ice, strain into glass, garnish with lemon.",Blueberry_BerryTropical.jpg,83
84,Blueberry,Flavored Vodkas,Blueberry Mojito ,"2 oz. Burnetts Blueberry Vodka 
10 Mint Leaves 
2 tsp. Sugar 
1/2 oz. Lime Juice 
Sparkling Water ","Muddle the mint, sugar, and lime juice in the bottom of your glass. Add ice, vodka and sparkling water.",Blueberry_BlueberryMojito.jpg,84
85,Blueberry,Flavored Vodkas,Blueberry Compote ,"2 oz. Burnetts Blueberry Vodka 
2 oz. Peach Schnapps 
2 oz. Cranberry Juice ","Combine in a shaker with ice, strain into a rocks glass.",Blueberry_BlueberryCompote.jpg,85
86,Blueberry,Flavored Vodkas,"Red, Bright and Blueberry ","1 1/2 oz. Burnett's Blueberry Vodka 
1 1/2 oz. Burnett's Raspberry Vodka 
5 oz. Cranberry Juice 
Splash of Blue Curacao ",Shake vodkas and cranberry juice well with ice and strain into highball glass. Splash Blue Curacao.,Blueberry_RedBrightBrightBlueberry.jpg,86
87,Blueberry,Flavored Vodkas,Berry Blue Tonic,"1 1/2 oz. Burnett's Blueberry Vodka
1/4 oz. Blue Curacao
2 oz. Tonic Water","Fill old-fashioned glass with ice. Add vodka, Curacao, and tonic water. Stir, and garnish with lime and blueberries. ",Blueberry_BerryBlueTonic.jpg,87
88,Blueberry,Flavored Vodkas,Blue Pom Martini,"1 oz. Burnett's Blueberry Vodka
1 oz. Burnett's Pomegranate Vodka
2 oz. Cranberry Juice
Squeeze of Fresh Lime",Shake well with ice in a shaker and strain into a chilled martini glass. Garnish with three blueberries.,Blueberry_BluePomMartini.jpg,88
89,Blueberry,Flavored Vodkas,Blueberry Cran Splash,"1 1/2 oz. Burnett's Blueberry Vodka
1 oz. Fresh Lemonade
Cranberry Juice",Pour vodka and fresh lemonade over ice into a tall glass and add cranberry juice to fill. Stir well and garnish with a lemon twist.,Blueberry_BlueberryCranSplash.jpg,89
90,Blueberry,Flavored Vodkas,Blueberry & Soda,"1 1/2 oz. Burnett's Blueberry Vodka
Club Soda",Pour vodka over ice into a lowball glass and add club soda to fill. Stir gently and garnish with a lime wedge.,Blueberry_BlueberrySoda.jpg,90
91,Blueberry,Flavored Vodkas,Blueberry Lemonade,"1 1/2 oz. Burnett's Blueberry Vodka
Fresh Lemonade",Pour vodka over ice into a tall glass and add lemonade to fill. Stir gently and garnish with a lemon slice.,Blueberry_BlueberryLemonade.jpg,91
92,Blueberry,Flavored Vodkas,Blue Raz Cosmo,"2 oz. Burnett's Blueberry Vodka
1 oz. Raspberry Liqueur
1 oz. Sweet & Sour Mix
2 tsp. Fresh Lime Juice",Shake well with ice in a shaker and strain into a chilled martini glass. Garnish with one blueberry and one raspberry.,Blueberry_BlueRazCosmo.jpg,92
93,Blueberry,Flavored Vodkas,Blue Lagoon Martini,"1 1/2 oz. Burnett's Blueberry Vodka
1 oz. Blue Curacao
Splash of Melon Liqueur",Shake well with ice in a shaker and strain into a chilled martini glass. Garnish with three blueberries.,Blueberry_BlueLagoonMartini.jpg,93
94,Blueberry,Flavored Vodkas,Blue-tini,"2 oz. Burnett's Blueberry Vodka
1 oz. Blue Curacao
1 oz. Cranberry Juice
Squeeze of Fresh Lime",Shake well with ice in a shaker and strain into a chilled martini glass. Garnish with a lemon wheel.,Blueberry_Bluetini.jpg,94
95,Pomegranate,Flavored Vodkas,Pomegranate Seabreeze ,"2 oz. Burnett's Pomegranate Vodka 
1 oz. Grapefruit Juice 
1 oz. Cranberry Juice ",Serve over ice and garnish with a lemon.,Pomegranate_Seabreeze.jpg,95
96,Pomegranate,Flavored Vodkas,Pomegranate Martini ,"2 oz. Burnetts Pomegranate Vodka 
1 oz. Triple Sec 
1 oz. Pomegranate Juice 
Squeeze of Fresh Lime ",Shake over ice and strain into cocktail glass.  ,Pomegranate_PomegranateMartini.jpg,96
97,Pomegranate,Flavored Vodkas,Pomegranate Lemonade ,"1 1/2 oz. Burnetts Pomegranate Vodka 
Fresh Lemonade 
Grapefruit Juice",Pour vodka over ice in a highball glass.  Fill glass with lemonade and grapefruit juice.,Pomegranate_PomegranateLemonade.jpg,97
98,Pomegranate,Flavored Vodkas,Pomegranate Cosmo ,"1 1/2 oz. Burnetts Pomegranate Vodka 
1/2 oz. Cranberry Juice 
1/2 oz. Orange Liqueur ",Shake over ice and strain into cocktail glass.  ,Pomegranate_PomegranateCosmo.jpg,98
99,Pomegranate,Flavored Vodkas,Pomade,"1 1/2 oz. Burnett's Pomegranate Vodka
Fresh Lemonade",Pour vodka over ice into a tall glass and add lemonade to fill. Stir gently and garnish with a lemon slice.,Pomegranate_Pomade.jpg,99
100,Pomegranate,Flavored Vodkas,Pomegranate Martini,"2 oz. Burnett's Pomegranate Vodka
1 oz. Triple Sec
1 oz. Pomegranate or Cranberry Juice
Squeeze of Fresh Lime",Shake well with ice in a shaker and strain into a chilled martini glass. Garnish with a lime wheel.,Pomegranate_PomegranateMartini.jpg,100
101,Pomegranate,Flavored Vodkas,Pom Press,"1 1/2 oz. Burnett's Pomegranate Vodka
Lemon-Lime Soda
Club Soda ",Pour vodka over ice into a low ball glass and add equal parts lemon-lime soda and club soda to fill. Stir gently and garnish with a lime wedge.,Pomegranate_PomPress.jpg,101
102,Pomegranate,Flavored Vodkas,Pom Breeze,"1 1/2 oz. Burnett's Pomegranate Vodka
Cranberry Juice
Pineapple Juice",Pour vodka over ice into a tall glass and add equal parts cranberry juice and pineapple juice to fill. Stir well and garnish with a pineapple wedge.,Pomegranate_PomBreeze.jpg,102
103,Pomegranate,Flavored Vodkas,Pomegranate Truffle,"2 oz. Burnett's Pomegranate Vodka
1 oz. White Creme de Cacao
1 oz. Fresh Cream
1/2 oz. Grenadine",Shake well with ice in a shaker and strain into a chilled martini glass. Garnish with a cherry.,Pomegranate_PomegranateTruffle.jpg,103
104,Pomegranate,Flavored Vodkas,Pom Flirtini,"1 1/2 oz. Burnett's Pomegranate Vodka
4 oz. Chilled Champagne
Grenadine",Pour vodka into flute and add Champagne to fill. Add a splash of grenadine for color.,Pomegranate_PomFlirtini.jpg,104
105,Pomegranate,Flavored Vodkas,Metropolitan,"2 oz. Burnett's Pomegranate Vodka
1 oz. Pomegranate Juice
1 1/2 oz. Pink Grapefruit Juice
Squeeze of Fresh Lime",Combine all ingredients in a shaker and shake well. Strain into a chilled martini glass. Garnish with a lime wheel.,Pomegranate_Metropolitan.jpg,105
106,Pomegranate,Flavored Vodkas,Mega Fruity,"1 oz. Burnett's Pomegranate Vodka
1 oz. Orange Liqueur
3/4 oz. Fresh Lime Juice","Pour ingredients into shaker with ice.  Shake well.  Pour into chilled cocktail glass, garnish with lime wheel.",Pomegranate_MegaFruity.jpg,106
107,Pomegranate,Flavored Vodkas,Oasis Refresher,"3 oz. Burnett's Pomegranate Vodka
1 1/2 oz. Cranberry Juice
Splash of Lemon-Lime Soda",Stir vodka and juice in a tall glass.  Add ice and splash of lemon-lime soda.  Garnish with an orange wedge.,Pomegranate_OasisRefresher.jpg,107
108,Strawberry,Flavored Vodkas,Strawberry Ice ,"1 1/2 oz. Burnett's Strawberry Vodka 
1 1/2 oz. Strawberry Schnapps 
1 1/2 oz. Cranberry Juice ","Combine all ingredients in a shaker over ice. Shake and strain into a chilled cocktail glass. Garnish with a strawberry, and serve.",Strawberry_StrawberryIce.jpg,108
109,Strawberry,Flavored Vodkas,Strawberry Lemon Drop,"1 1/2 oz. Burnett's Strawberry Vodka 
2 oz. Sweet & Sour Mix 
3 drops Lemon Juice 
1/2 tsp. Sugar ","Pour all ingredients into a shaker, and shake. Rim martini glass with lemon juice and sugar. Strain into the cocktail glass, and serve.",Strawberry_StrawberryLemonDrop.jpg,109
110,Strawberry,Flavored Vodkas,Strawberry Fizz ,"1 1/2 oz. Burnett's Strawberry Vodka 
1 oz. Lemon-Lime Soda 
2 oz. Ruby Red Grapefruit Juice ","Fill glass with ice, pour in vodka, pour in lemon-lime soda, and top off with Grapefruit juice till pink. Shake gently.",Strawberry_StrawberryFizz.jpg,110
111,Strawberry,Flavored Vodkas,Strawberry Dream ,"1/3 oz. Burnett's Strawberry Vodka 
1/3 oz. Burnett's Vanilla Vodka 
1/3 oz. Coffee Liqueur ",Layer ingredients in a shot glass (Coffee Liqueur at the bottom). Chill and serve as a shot,Strawberry_StrawberryDream.jpg,111
112,Espresso,Flavored Vodkas,Mocha Frap Shake,"1 oz. Burnett's Espresso Vodka
1 oz. Irish Cream Liqueur
2 scoops French Vanilla Ice Cream",Pour ingredients into a blender with crushed ice.  Blend until smooth and pour into glass topped with whipped cream (optional).,Espresso_MochaFrapShake.jpg,112
113,Espresso,Flavored Vodkas,Espresso-tini,"1 oz. Burnett's Espresso Vodka
1 oz. Coffee Liqueur
1 oz. Irish Cream Liqueur",Shake well with ice in a shaker and strain into a chilled sugar-rimmed martini glass. Garnish with a mint sprig.,Espresso_Espressotini.jpg,113
114,Espresso,Flavored Vodkas,Mocha Martini,"2 oz. Burnett's Espresso Vodka
1/2 oz. Chocolate Liqueur
1 shot Espresso",Shake well with ice in a shaker and strain into a chilled martini glass.,Espresso_MochaMartini.jpg,114
115,Espresso,Flavored Vodkas,Coffee Truffle,"1 1/2 oz. Burnett's Espresso Vodka
1 1/2 oz. Coffee Liqueur
1 oz. Irish Cream Liqueur
3 oz. Espresso",Shake well with ice in a shaker and strain into a chilled cocktail glass. Garnish with a Maraschino cherry.,Espresso_CoffeeTruffle.jpg,115
116,Espresso,Flavored Vodkas,Espresso Cosmo,"2 oz. Burnett's Espresso Vodka
1 oz. Coconut Rum",Shake well with ice in a shaker and strain into a chilled chocolate rimmed martini glass.,Espresso_EspressoCosmo.jpg,116
117,Sweet Tea,Flavored Vodkas,Sweet Tea Cooler,"1 part Burnett's Sweet Tea Vodka
1 part Spring Water
Simple Syrup","Shake well with ice in a shaker, pour into tall glass with ice and garnish with a lemon wedge. ",SweetTea_SweetTeaCooler.jpg,117
118,Sweet Tea,Flavored Vodkas,Charleston Lemonade,"2 parts Burnett's Sweet Tea Vodka
1 part Fresh Squeezed Lemonade
Splash of Cranberry Juice","Combine Burnett's Sweet Tea Vodka and Lemonade in a tall glass and stir, top off with Cranberry Juice.  Garnish with a raspberry and lemon curl.",SweetTea_CharlestonLemonade.jpg,118
119,Sweet Tea,Flavored Vodkas,Sweet Ginger,"2 oz. Burnett's Sweet Tea Vodka
4 oz. Ginger Ale",Combine all ingredients in a tall glass and stir.  Garnish with a lemon.,SweetTea_SweetGinger.jpg,119
120,Sweet Tea,Flavored Vodkas,Daily Palmer,"2 oz. Burnett's Sweet Tea Vodka
4 oz. Lemonade",Combine all ingredients in a tall glass and stir.  Garnish with a lemon.,SweetTea_DailyPalmer.jpg,120
121,Sweet Tea,Flavored Vodkas,Sweet Tea Mojito," 2 parts Burnett's Sweet Tea Vodka 
1/2 Fresh Lime
5-6 Mint Leaves
1 tsp. Sugar
Splash of Club Soda","Place mint, sugar and juice from 1/2 lime in a glass. Crush well with back of spoon.  Fill glass with ice and remaining ingredients.  ",SweetTea_SweetTeaMojito.jpg,121
122,Pink Lemonade,Flavored Vodkas,Pink Bubbles,"1 part Burnett's Pink Lemonade Vodka
3 parts Champagne",Combine ingredients in chilled champagne glass.,PinkLemonade_PinkBubbles.jpg,122
123,Pink Lemonade,Flavored Vodkas,Pink Flamingo,"2 parts Burnett's Pink Lemonade Vodka
1 part Cranberry Juice",Add ingredients to cocktail glass with ice and stir.,PinkLemonade_PinkFlamingo.jpg,123
124,Pink Lemonade,Flavored Vodkas,Ultimate Lemonade,"2 parts Burnett's Pink Lemonade Vodka
2 parts Lemonade
Splash of Sparkling Water",Shake with ice and strain into a martini glass.,PinkLemonade_UltimateLemonade.jpg,124
125,Pink Lemonade,Flavored Vodkas,Ginger Fusion,"1 part Burnett's Pink Lemonade Vodka
1 part Ginger Ale",Drop in a few sliced strawberries and let sit.  Serve over ice in a pint glass.,PinkLemonade_GingerFusion.jpg,125
126,Pink Lemonade,Flavored Vodkas,Pink Pop,"1 part Burnett's Pink Lemonade
1 part Lemon-Lime Soda", Serve over ice in a pint glass.,PinkLemonade_PinkPop.jpg,126
127,Pink Lemonade,Flavored Vodkas,Martini Pink," 2 1/2 oz. Burnett's Pink Lemonade Vodka
1/2 oz. Triple Sec 
Squeezed Lemon",Shake with ice and strain into a martini glass.,PinkLemonade_MartiniPink.jpg,127
128,Pink Lemonade,Flavored Vodkas,Peachy Pink,"2 oz. Burnett's Pink Lemonade Vodka      
1 oz. Peach Schnapps
1 oz. Triple Sec",Stir and pour into a highball glass.,PinkLemonade_PeachyPink.jpg,128
129,Pink Lemonade,Flavored Vodkas,Pink Cotton Candy,"3 oz. Burnett's Pink Lemonade Vodka    
1 oz. Amaretto Liqueur","Pour all ingredients over ice into a Collins glass, stir, and serve.",PinkLemonade_PinkCottonCandy.jpg,129
130,Pink Lemonade,Flavored Vodkas,Blushing Bride,"3 oz. Burnett's Pink Lemonade Vodka   
1/2 oz. PAMA Pomegranate Liqueur
2 Tbsp. Sugar",Mix ingredients and serve in a Highball Glass.,PinkLemonade_BlushingBride.jpg,130
131,Pink Lemonade,Flavored Vodkas,Sunny Sangria,"6 oz. Burnett's Pink Lemonade Vodka   
1/2 oz. Burnett's Cherry Vodka
1/2 oz. Lime Juice
4 oz. Strawberry Juice
Juice of 1 Small Lemon
Sugar",Mix all ingredients together with lots of ice.,PinkLemonade_SunnySangria.jpg,131
132,Pink Lemonade,Flavored Vodkas,Berry Pink-tini,"2 1/2 oz. Burnett's Pink Lemonade Vodka
1 oz. Strawberry Liqueur
Splash of Sweet & Sour Mix 
Splash of Cranberry Juice",Shake with ice and strain into a martini glass.,PinkLemonade_BerryPinktini.jpg,132
133,Pink Lemonade,Flavored Vodkas,Ultimate Palmer,"1 part Burnett's Pink Lemonade Vodka
1 part Burnett's Sweet Tea Vodka
Lemonade","Pour over ice in a tall glass, add lemonade to desired taste and stir.",PinkLemonade_UltimatePalmer.jpg,133
134,Fruit Punch,Flavored Vodkas,Tropical Punch,"2 1/2 oz. Burnett's Fruit Punch Vodka
1 1/2 oz. Pineapple Juice
1/2 oz. Triple Sec",Shake with ice and strain into a chilled martini glass. ,FruitPunch_TropicalPunch.jpg,134
136,Fruit Punch,Flavored Vodkas,Punch 'n Orange,"2 oz. Burnett's Fruit Punch Vodka
3 oz. Orange Juice
Splash Lemon-Lime Soda",Mix in a cocktail glass with ice and top off with lemon-lime soda.,FruitPunch_PunchAndOrange.jpg,136
137,Fruit Punch,Flavored Vodkas,Double Punch,"3 oz. Burnett's Fruit Punch Vodka
4 oz. Fruit Punch",Mix in a highball glass with ice.,FruitPunch_DoublePunch.jpg,137
138,Fruit Punch,Flavored Vodkas,Aqua Punch," 2 oz. Burnett's Fruit Punch Vodka
1/2 oz. Blue Curacao
1/2 oz. Grenadine
Splash Club Soda",Shake with ice and strain into a chilled martini glass.,FruitPunch_AquaPunch.jpg,138
139,Fruit Punch,Flavored Vodkas,Hawaiian-tini," 2 oz. Burnett's Fruit Punch Vodka
1/2 oz. Triple Sec
1 oz. Cranberry Juice
Splash Lime Juice",Shake with ice and strain into a chilled martini glass.,FruitPunch_Hawaiiantini.jpg,139
140,Fruit Punch,Flavored Vodkas,Mountain Punch,"3 oz. Burnett's Fruit Punch Vodka
6 oz. Mountain Dew",Stir over ice and serve in Collins glass.,FruitPunch_MountainPunch.jpg,140
141,Fruit Punch,Flavored Vodkas,The Original Hawaii Punch,"1 part Burnett's Fruit Punch Vodka
1 part Pineapple Juice
Lemon-Lime Soda",Combine ingredients in glass with a splash of lemon-lime soda and crushed ice.,FruitPunch_OriginalHawaiianPunch.jpg,141
142,Fruit Punch,Flavored Vodkas,Fruit Punch Fizz,"2 oz. Burnett's Fruit Punch Vodka
3 oz. Ginger Ale
Splash Cranberry Juice",Combine ingredients in glass with ice and top off with a splash of cranberry juice.,FruitPunch_FruitPunchFizz.jpg,142
143,Pineapple,Flavored Vodkas,Pineapple Sunset,"2 oz. Burnett's Pineapple Vodka
2 oz. Orange Juice
Splash Lime Juice",Shake and serve over ice in a cocktail glass.,Pinapple_PinappleSunset.jpg,143
144,Pineapple,Flavored Vodkas,Tropical Breeze,"1 1/2 oz. Burnett's Pineapple Vodka
3 oz. Cranberry Juice",Shake and serve over ice in a cocktail glass. Garnish with a lime wedge.,Pinapple_TropicalBreeze.jpg,144
145,Pineapple,Flavored Vodkas,Blue Hawaiian,"3/4 oz. Burnett's Pineapple Vodka
2 oz. Hpnotiq
Splash Club Soda",Add vodka and Hpnotiq to cocktail glass with ice. Top off with club soda and stir.,Pinapple_BlueHawaiian.jpg,145
146,Pineapple,Flavored Vodkas,Pineapple Fizz,"1 1/2 oz. Burnett's Pineapple Vodka
Lemon-Lime Soda",Pour vodka into cocktail glass with ice.  Fill glass with lemon-lime soda.,Pinapple_PinappleFizz.jpg,146
147,Pineapple,Flavored Vodkas,Island Ruby,"1 oz. Burnett's Pineapple Vodka
1 1/2 oz. PAMA Pomegranate Liqueur
Splash Pineapple Juice",Mix ingredients in shaker with ice and strain into a martini glass.,Pinapple_IslandRuby.jpg,147
148,Orange Cream,Flavored Vodkas,Orange Creamsicle,"1 1/2 oz. Burnett's Orange Cream Vodka
2 oz. Orange Soda",Mix into a low ball glass with ice.,OrangeCream_OrangeCreamsicle.jpg,148
149,Orange Cream,Flavored Vodkas,Daydream,"2 oz. Burnett's Orange Cream Vodka
1 oz. Orange Juice
1/2 oz. Pineapple Juice",Shake over ice and strain into a martini glass.  Garnish with an orange twist.,OrangeCream_Daydream.jpg,149
150,Orange Cream,Flavored Vodkas,Tangtini,"1 oz. Burnett's Orange Cream Vodka
1 oz. Burnett's Vanilla Vodka
2 oz. Orange Juice",Combine ingredients in a shaker with ice and strain into a martini glass.  Top with whipped cream.,OrangeCream_Tangtini.jpg,150
151,Orange Cream,Flavored Vodkas,Orange Creamsicle,"2 oz. Burnett's Orange Cream Vodka
1/4 oz. Vanilla Liqueur
1 1/2 oz. Orange Juice
Splash of Cream",Combine ingredients in a shaker with ice and strain into a martini glass.,OrangeCream_Dreamsicle.jpg,151
152,Orange Cream,Flavored Vodkas,Tangerine Dream,"1 1/2 oz. Burnett's Orange Cream Vodka
1/4 oz. Triple Sec
2 oz. Orange Juice
Splash Lemon-Lime Soda",Combine first three ingredients in a shaker with ice and strain into a glass over ice.  Top off with lemon-lime soda.,OrangeCream_TangerineDream.jpg,152
153,Orange Cream,Flavored Vodkas,Dream-tini,"1 1/2 oz. Burnett's Orange Cream Vodka
1/2 oz. Burnett's Citrus Vodka
2 oz. Orange Juice
Splash Triple Sec",Combine ingredients in a shaker with ice and strain into a martini glass.,OrangeCream_Dreamtini.jpg,153
154,Orange Cream,Flavored Vodkas,Cream Soda,"2 oz. Burnett's Orange Cream Vodka
Vanilla Coke",Pour vodka over ice and fill with vanilla coke.,OrangeCream_CreamSoda.jpg,154
155,Orange Cream,Flavored Vodkas,Italian Sunrise,"1 1/2 oz. Burnett's Orange Cream Vodka
1/4 oz. Amaretto Liqueur
2 oz. Orange Juice",Combine ingredients in a shaker with ice and strain into a martini glass.,OrangeCream_ItalianSunrise.jpg,155
156,Limeade,Flavored Vodkas,Key Limeade,"2 oz. Burnett's Limeade Vodka
1/2 oz. Burnett's Vanilla Vodka
3/4 oz. Pineapple Juice",Shake with ice and strain into a chilled martini glass.,Limeade_KeyLimeade.jpg,156
157,Limeade,Flavored Vodkas,Cherry Limeade,"1 1/2 oz. Burnett's Limeade Vodka
2 oz. Lemon-Lime Soda
1/4 oz. Grenadine",Shake with ice and serve on the rocks.,Limeade_CherryLimeade.jpg,157
158,Limeade,Flavored Vodkas,Lime Crush,"2 oz. Burnett's Limeade Vodka
Lemon-Lime Soda",Pour Burnett's Limeade over ice and fill glass with lemon-lime soda.,Limeade_LimeCrush.jpg,158
159,Limeade,Flavored Vodkas,Pink Limeade,"2 oz. Burnett's Limeade Vodka
1 oz. Burnett's Pink Lemonade Vodka
Splash Lemon Juice
Lemon-Lime Soda",Build first three ingredients in a glass with ice and fill with lemon-lime soda.,Limeade_PinkLimeade.jpg,159
160,Limeade,Flavored Vodkas,Limezilla,"1 1/2 oz. Burnett's Limeade Vodka
1/2 oz. Burnett's Grape Vodka
Splash Lime Juice
Lemon-Lime Soda",Build first three ingredients in a glass with ice and fill with lemon-lime soda.,Limeade_Limezilla.jpg,160
161,Limeade,Flavored Vodkas,Loco Limeade,"2 oz. Burnett's Limeade Vodka
3/4 oz. Melon Liqueur
1 1/2 oz. Lime Juice
Splash of Sweet & Sour Mix ",Build first three ingredients in a glass with ice and top off with sweet & sour mix.,Limeade_LocoLimeade.jpg,161
162,Limeade,Flavored Vodkas,Limeade Punch,"4 c. Burnett's Limeade Vodka
12 oz. Orange Juice Concentrate
12 oz. Lemon-Lime Soda","Combine all ingredients with a bag of ice.  Mix well, cover until frost forms on the outside of bowl.",Limeade_LimeadePunch.jpg,162
163,Limeade,Flavored Vodkas,Sour Apple Limeade,"2 oz. Burnett's Limeade Vodka
1 oz. Burnett's Sour Apple Vodka
1 oz. Lemon-Lime Soda or Sweet & Sour Mix",Shake with ice and serve on the rocks.,Limeade_SourAppleLimeade.jpg,163
164,Whipped Cream,Flavored Vodkas,Tropical Whipt',"2 oz. Burnett's  Whipped Cream Vodka
3/4 oz. Coconut Rum
2 oz. Pineapple Juice",Pour ingredients into a glass with ice and stir.,WhippedCream_TropicalWhipt.jpg,164
165,Whipped Cream,Flavored Vodkas,Whipt' Breeze,"2 oz. Burnett's Whipped Cream Vodka
3 oz. Cranberry Juice",Pour ingredients into a glass with ice and stir.,WhippedCream_WhiptBreeze.jpg,165
166,Whipped Cream,Flavored Vodkas,Root Beer Float,"1 1/2 oz. Burnett's  Whipped Cream Vodka
3 oz. Root Beer
1 scoop ice cream (optional)",Pour ingredients into a glass with ice and stir. Top off with ice cream if desired.,WhippedCream_RootBeerFloat.jpg,166
167,Whipped Cream,Flavored Vodkas,Whip-It,"1 oz. Burnett's  Whipped Cream Vodka
2 oz. Regular or Cherry Cola",Pour ingredients into a glass with ice and stir.,WhippedCream_WhipIt.jpg,167
168,Whipped Cream,Flavored Vodkas,Orange Dream-Sicle,"1 1/2 oz. Burnett's Whipped Cream Vodka
1 oz. Burnett's Orange Cream Vodka
2 oz. Orange Soda",Pour ingredients into a glass with ice and stir.,WhippedCream_OrangeDreamsicle.jpg,168
169,Whipped Cream,Flavored Vodkas,Red Cream Float,"2 oz. Burnett's  Whipped Cream Vodka
4 oz. Red Cream Soda",Pour ingredients into a glass with ice and stir.,WhippedCream_RedCreamFloat.jpg,169
170,Whipped Cream,Flavored Vodkas,Spiced Whip,"1 1/2 oz. Burnett's  Whipped Cream Vodka
3/4 oz. Spiced Rum
4 oz. Cola",Pour ingredients into a glass with ice and stir.,WhippedCream_SpicedWhip.jpg,170
171,Whipped Cream,Flavored Vodkas,OJ & Cream,"2 oz. Burnett's  Whipped Cream Vodka
1 1/2 oz. Orange Juice
Splash of Pineapple Juice",Pour ingredients into a glass with ice and stir.,WhippedCream_OjAndCream.jpg,171
172,Whipped Cream,Flavored Vodkas,Cream Cooler,"2 oz. Burnett's Whipped Cream Vodka
2 oz. Pineapple Juice
2 oz. Orange Juice",Pour the ingredients into a glass with ice and stir.,WhippedCream_CreamCooler.jpg,172
173,Whipped Cream,Flavored Vodkas,Peaches N' Cream,"1 oz. Burnett's Whipped Cream Vodka
1 oz. Burnett's Peach Vodka
3 oz. Lemon-Lime Soda",Pour the ingredients into a glass with ice and stir.,WhippedCream_PeachesAndCream.jpg,173
174,Whipped Cream,Flavored Vodkas,Buttered Pancakes,"1 oz. Burnett's Whipped Cream Vodka
1 oz. Triple Sec
6 oz. Cola",Pour the ingredients into a glass with ice and stir.,WhippedCream_ButteredPancakes.jpg,174
175,Blueberry,Flavored Vodkas,Berry Blast,"1 oz. Burnett's Blueberry Vodka
2 oz. Hpnotiq
Splash Lemonade",Add lemonade to taste.  Garnish with fresh blueberries and mint.,Blueberry_BerryBlast.jpg,175
265,Whipped Cream,Flavored Vodkas,Pumpkin Pie a la Mode Martini,"2 oz. Fulton's Harvest Pumpkin Pie Cream Liqueur
1 oz. Burnett's Whipped Cream Vodka",Pour ingredients over ice into a glass rimmed with graham cracker crumbs.,HotCinn_HotRussian.jpg,10000
176,Relaxed,Gin,Gin Swizzle,"2 oz. Burnett's Gin
1/2 tsp. Bitters
1/2 oz. Lime Juice
1 tsp. Sugar
Club Soda","Shake gin, bitters, lime juice and sugar well with ice.  Strain into a tall 14 oz. glass half-filled with ice. Add soda and stir.",Gin_GinSwizzle.jpg,176
177,Relaxed,Gin,Horse's Neck,"
2 oz. Burnett's Gin
1/2 oz. Lemon Juice
Ginger Ale  
Peel of Whole Lemon","Place lemon peel in a highball glass so that the top of peel overlaps rim of glass, with the rest spiraling down into glass.  Fill glass with cracked ice.  Pour gin and lemon juice into glass.  Fill with Ginger Ale and stir.",Gin_HorsesNeck.jpg,177
178,Relaxed,Gin,Bermuda Bouquet,"1 1/2 oz. Burnett's Gin
1 oz. Apricot Brandy
1 tsp. Grenadine
1/2 tsp. Triple Sec                     
Juice of 1/4 Orange
Juice of 1/2 Lemon
1 tsp. Powdered Sugar","Combine juice of orange and lemon, powdered sugar, gin, brandy, grenadine and triple sec.  Shake with ice and strain into highball glass with ice cubes.",Gin_BermudaBouquet.jpg,178
179,Relaxed,Gin,Robert E. Lee Cooler,"2 oz. Burnett's Gin  
Juice of 1/2 Lime
1/2 tsp. Powdered Sugar
2 oz. Sparkling Water
Ginger Ale
Orange or lemon peel","Put lime juice, powered sugar, sparkling water into a collins glass and stir.  Add ice cubes and gin.  Fill with Ginger Ale and stir again.  Add spiral of orange or lemon peel and dangle end over rim of glass.",Gin_RobertELeeCooler.jpg,179
180,Relaxed,Gin,Gin Daisy,"1 1/2 oz. Burnett's Gin
1/2 oz. Lemon Juice
1 1/2 tsp. Raspberry Syrup
Club Soda","Shake gin, lemon juice and raspberry syrup well with ice.  Strain into a tall 8 oz. glass half-filled with ice.  Add soda.  Garnish with lemon slice and mint sprig.",Gin_GinDaisy.jpg,180
181,Relaxed,Gin,Golden Gin Fizz,"2 oz. Burnett's Gin
1 /2 oz. Lemon Juice
1 egg Yolk
2 tsp. Sugar
Club Soda
Freshly Ground Nutmeg","Shake gin, lemon juice, egg yolk and sugar well with ice.  Strain into a tall 14 oz. glass half-filled with ice.  Fill glass with soda and stir.",Gin_GoldenGinFizz.jpg,181
182,Relaxed,Gin,South Side,"2 oz. Burnett's Gin
1/2 oz. Lemon Juice
1 tsp. Sugar
2 sprigs Fresh Mint","Shake gin, lemon juice and sugar well with ice.  Strain into pre-chilled cocktail glass.  Tear several leaves of each mint sprig before adding to drink. ",Gin_SouthSide.jpg,182
183,Relaxed,Gin,Pompano,"1 oz. Burnett Gin
1/2 oz. Dry Vermouth
1 oz. Grapefruit Juice
4 dashes Bitters","Shake gin, vermouth, grapefruit juice and bitters well with ice.  Strain over rocks in pre-chilled old-fashioned glass.  Garnish with orange slice.",Gin_Pompano.jpg,183
184,Relaxed,Gin,Minted Gin,"1 1/2 oz. Burnett's Gin
1/2 oz. Lemon Juice
1/2 tsp. Sugar
2 Sprigs Fresh Mint","Shake gin, lemon juice and sugar well with ice.  Strain into pre-chilled glass with rocks.  Garnish with lemon and orange slices.  Tear mint leaves before placing on rocks.",Gin_MintedGin.jpg,184
185,Relaxed,Gin,Morro,"1 oz. Burnett's Gin
1/2 oz. Rum
1/2 oz. Lime Juice
1/2 oz. Pineapple Juice
1/2 tsp. Sugar","Shake gin, rum, lime juice, pineapple juice and sugar with ice.  Strain into pre-chilled sugar-frosted glass (moisten rim of glass and dip into sugar).",Gin_Morro.jpg,185
186,Relaxed,Gin,Passion Cup,"2 oz. Burnett's Gin
2 oz. Orange Juice
1 oz. Passion Fruit Juice
1 oz. Pina Colada Mix or equal parts of Pineapple Juice and Coconut Milk","Mix gin, orange juice, passion fruit and Pina Colada mix with cracked ice in a shaker or blender and pour into a chilled wine goblet.  Garnish with maraschino cherry.",Gin_PassionCup.jpg,186
187,Relaxed,Gin,Mule's Hind Leg Cocktail,"1/2 oz. Burnett's Gin
1/2 oz. Benedictine Brandy
1/2 oz. Applejack Brandy
2 oz. Maple Syrup
1/2 oz. Apricot Brandy",Shake well and strain into cocktail glass.,Gin_MulesHindLeg.jpg,187
188,Relaxed,Gin,Parisian Cocktail,"1 oz. Burnett's Gin
1 oz. Dry Vermouth
1 oz. Creme de Cassis",Shake well and strain into cocktail glass,Gin_ParisianCocktail.jpg,188
189,Adventurous,Gin,Queen's Cocktail,"1 oz. Burnett's Gin
1/2 slice Pineapple, crushed
1/2 oz. Dry Vermouth
1/2 oz. Sweet Vermouth",Shake well and strain into cocktail glass.,Gin_QueensCocktail.jpg,189
190,Adventurous,Gin,Peter Pan Cocktail,"1/2 oz. Burnett's Gin                  
1/2 oz. Bitters
1/2 oz. Orange Juice
1/2 oz. Dry Vermouth",Shake well and strain into cocktail glass.,Gin_PeterPanCocktail.jpg,190
191,Adventurous,Gin,Will Rogers Cocktail,"1/2 oz. Burnett's Gin           
1/2 oz. Orange Juice
1/2 oz. Dry Vermouth
1 oz. Blue Curacao",Shake well and strain into cocktail glass.,Gin_WillRogersCocktail.jpg,191
192,Adventurous,Gin,Cherry Kiss,"1 oz. Burnett's Gin
1/2 oz. Maraschino Liqueur
2 oz. Pineapple Juice
3 dashes of Grenadine","Shake well over ice, strain into a Martini glass and top with grated nutmeg.",Gin_CherryKiss.jpg,192
193,Adventurous,Gin,Christmas Cocktail,"1 oz. Burnett's Gin
1 oz. Peppermint Schnapps
Grenadine","
Coat a Martini or pony glass with grenadine, pour gin and peppermint schnapps over ice, shake, strain and pour into glass.",Gin_ChristmasCocktail.jpg,193
194,Adventurous,Gin,Gin Fraise,"1 oz. Burnett's Gin
1/2 oz. Grenadine
1/2 oz. Sweet & Sour Mix
3/4 oz. Cherry Brandy
Lemon-Lime Soda","Combine gin, grenadine, and sweet & sour mix into a shaker with ice and shake.  Strain into glass with ice and fill will with lemon-lime soda.  Float cherry brandy and garnish with orange slice and a cherry.",Gin_VodkaFraise.jpg,194
195,Adventurous,Gin,Gin & Tonic,"2 oz. Burnett's Gin
5 oz. Tonic Water",Pour the ingredients into a high ball glass with ice.  Stir and garnish with a lime wedge.,Gin_GinandTonic.jpg,195
196,Adventurous,Gin,Tom Collins,"1 1/2 oz. Burnett's Gin
1 oz. Lemon Juice
1/2 oz. Simple Syrup
Club Soda","Pour the Gin, lemon juice and simple syrup into a collins glass with ice.  Stir and top off with club soda.  Garnish with a cherry and an orange slice.",Gin_TomCollins.jpg,196
197,Adventurous,Gin,Negroni,"1 1/2 oz. Burnett's Gin
1 1/2 oz. Sweet Vermouth
1 1/2 oz. Campari",Pour ingredients into an old fashioned glass with ice.  Stir and garnish with an orange slice.,Gin_Negroni.jpg,197
198,Adventurous,Gin,Gimlet,"2 oz. Burnett's Gin
2 oz. Sweetened Lime Juice",Pour gin and lime juice over ice into a shaker and shake well.  Strain into chilled martini glass rimmed with sugar.,Gin_Gimlet.jpg,198
199,Coconut,Rum,Killer Colada,"3oz. Burnett's Coconut Rum
3 Tbsp.  Coconut Milk
3 Tbsp. Pineapple (Crushed)
2 c. Crushed Ice",Blend on high speed. Serve with a pineapple wedge.,RumCoconut_KillerColada.jpg,199
200,Gold,Rum,Calypso,"3/4 oz. Burnett's Gold Rum 
1/2 oz. Triple Sec
6 oz. Pineapple Juice","Pour Original Dark Rum, triple sec and pineapple juice into a glass filled with 3/4 ice. Stir well and serve. ",RumGold_Calypso.jpg,200
201,Gold,Rum,Big Chill,"1 1/2 oz. Burnett's Gold Rum
1 oz. Coconut Creme
1 oz. Orange Juice
1 oz. Cranberry Juice
1 oz. Pineapple Juice","Pour rum, coconut creme, and juices into shaker with ice. Shake well, strain into a glass. ",RumGold_BigChill.jpg,201
202,Gold,Rum,"
Sharkbite
","3 oz. Burnett's Gold Rum 
3 oz. Cranberry Juice
3 oz. Orange Juice",Pour all ingredients into a shaker with ice. Shake well and strain into a Collins glass over ice. Garnish with an orange slice. ,RumGold_Sharbite.jpg,202
203,Gold,Rum,Painkiller,"2 oz. Burnett's Gold Rum 
1 1/2 oz. Orange Juice 
4 oz. Pineapple Juice
1 oz. Creme of Coconut",Mix juices and creme and pour over ice. Add rum and garnish with a pineapple slice and cherry.,RumGold_Painkiller.jpg,203
204,Coconut,Rum,Blue Bird,"1 1/2 oz. Burnett's Coconut Rum
1 1/2 oz. Hpnotiq
Splash of Lime","Serve in a martini glass.  Rim the glass with coconut flakes.
Garnish with a lime wedge.",RumCoconut_BlueBird.jpg,204
205,White,Rum,Runnerita,"1 1/2 oz. Burnett's White Rum
1/2 oz. Alize Gold
1/2 oz. Triple Sec
1 1/2 c. of Ice
Splash of Fresh Lime Juice","Blend and serve in a Tiki mug.  Garnish
with a sliced lime and an orchid.",RumWhite_Runnerrita.jpg,205
206,Coconut,Rum,Tidal Wave,"4 oz. Burnett's Coconut Rum
1/2 oz. Blue Curacao
1/2 oz. Amaretto Liqueur
Dash of Fresh Lime Juice
Dash of Coconut Cream","Shake and serve in a coconut flake-rimmed
martini glass.  Garnish with an orchid.",RumCoconut_TidalWave.jpg,206
207,Coconut,Rum,Killer Cola,"2 oz. Burnett's Coconut Rum
4 oz. Cola",Serve over ice with garnish.,RumCoconut_KillaCola.jpg,207
208,Coconut,Rum,Killerita,"2 oz. Burnett's Coconut Rum
1 oz.  Triple Sec
1 oz.  Pineapple Juice
1/2 oz.  Coconut Milk","Pour ingredients into shaker with ice, shake and strain into chilled martini glass.  Garnish with maraschino cherries.",RumCoconut_Killerita.jpg,208
209,White,Rum,Shark Attack,"1 1/2 oz. Burnett's White Rum
3 oz. Pineapple Juice
1 oz. Grenadine",Serve over ice with garnish.,RumWhite_SharkAttack.jpg,209
210,White,Rum,Shark Tooth,"1 oz. Burnett's White Rum
1 oz. Melon Liqueur
2 oz. Pineapple Juice
1/2 oz. Grenadine",Serve over ice with garnish.,RumWhite_SharkTooth.jpg,210
211,White,Rum,Rum-Rita ,"2 oz. Burnett's White Rum
1 oz. Triple Sec
1 oz. Lime Juice","Serve over ice, garnish with a lime wedge.",RumWhite_RumRita.jpg,211
212,White,Rum,Great White,"1 oz. Burnett's White Rum
1 oz. Cranberry Juice
4 oz. Orange Juice",Serve over ice with garnish.,RumWhite_GreatWhite.jpg,212
213,White,Rum,Maneater,"1 oz. Burnett's White Rum
4 oz. Cola
1/2 oz. Grenadine",Serve over ice with garnish.,RumWhite_Maneater.jpg,213
214,White,Rum,New Orleans Buck,"1 1/2 oz.  Burnett's White Rum
1/2 oz. Lime Juice
1/2 oz. Orange Juice
2 dashes Bitters
Ginger Ale",Shake well and strain into 8 oz. glass half-filled with ice.  Add Ginger Ale and stir.  Garnish with lime slice.,RumWhite_NewOrleansBuck.jpg,214
215,White,Rum,Corkscrew,"1 1/2 oz. Burnett's White Rum
1/2 oz. Dry Vermouth
1/2 oz. Peach Schnapps",Shake well and strain into pre-chilled cocktail glass.  Garnish with lime slice.,RumWhite_Corkscrew.jpg,215
216,White,Rum,Knickerbocker,"3 oz. Burnett's White Rum                 
1 tsp. Raspberry Syrup
1 tsp. Lemon Juice
1 tsp. Orange Juice
1 chunk Pineapple
2 dashes Curacao",Shake well and serve in medium-sized glass,RumWhite_Kinickerbocker.jpg,216
217,White,Rum,Mojito,"2 oz. Burnett's White Rum
1 oz. Fresh Lime Juice
3-4 Mint Sprigs
1 1/2 tsp. Sugar
3 oz. Sparkling Water",Add first four ingredients to glass and muddle together.  Fill glass with ice and top off with sparkling water.,RumWhite_Mojito.jpg,217
218,White,Rum,Pineapple Fizz,"2 oz. Burnett's White Rum      
2 Tbsp. Pineapple Juice
1/2 tsp. Powdered Sugar",Shake well and strain into 8 oz. glass.  Fill with soda water.,RumWhite_PinappleFizz.jpg,218
219,White,Rum,Vodka Fraise,"3/4 oz. Burnett's White Rum     
3/4 oz. Burnett's Vodka
1/2 oz. Strawberry Liqueur
1/2 oz. Lime Juice
1/2 tsp. Grenadine",Shake well and strain into pre-chilled sugar-rimmed cocktail glass.  Float 1/2 large strawberry on top.,RumWhite_RumFraise.jpg,219
220,Spiced,Rum,Whale Spout,"1 oz. Burnett's Spiced Rum
5 oz. Lemonade
Float of Blue Curacao",Serve over ice with garnish.,RumSpiced_WhaleSpout.jpg,220
221,Spiced,Rum,Whale's Breath,"1 oz. Burnett's Spiced Rum
1 oz. Cranberry Juice
4 oz. Orange Juice",Serve over ice with garnish.,RumSpiced_WhalesBreath.jpg,221
222,Spiced,Rum,Fluke,"1 oz. Burnett's Spiced Rum
5 oz. Cola",Serve over ice with garnish.,RumSpiced_Fluke.jpg,222
223,Spiced,Rum,Old Sea Hag,"1 oz. Burnett's Spiced Rum
4 oz. Cola
1 oz. Orange Juice",Serve over ice with garnish.,RumSpiced_OldSeaHag.jpg,223
224,Relaxed,Vodka,The Broad Street Treat,"1 1/2 oz. Burnett's Vodka
1/2 oz. Triple Sec
Cranberry Juice
Club Soda",Add ingredients to glass with ice and fill with cranberry juice.  Stir and top with a splash of club soda.  Garnish with floating orange slices.,Vodka_BroadStreetTreat.jpg,224
225,Relaxed,Vodka,Flying Chocolate-covered Pear Martini,"3 oz. Burnett's Vodka
1 oz. Chocolate Liqueur
1/2 oz. Pear Schnapps
1/2 oz. Triple sec",Fill shaker with ice.  Shake well and strain into chilled Martini glass.,Vodka_FlyingChocoPearMartini.jpg,225
226,Relaxed,Vodka,Screw Driver,"1/2 oz. Burnett's Vodka
2 oz. Orange Juice",Pour Vodka directly into glass.  Fill to the top with orange juice.,Vodka_Screwdriver.jpg,226
227,Relaxed,Vodka,Warsaw Cocktail,"1 1/2 oz. Burnett's Vodka
1/2 oz. Blackberry Liqueur
1/2 oz. Dry Vermouth
1 tsp. Lemon Juice",Shake well and strain into pre-chilled cocktail glass.  Add twist of lemon.,Vodka_WarsawCocktail.jpg,227
228,Relaxed,Vodka,Blue Star Martini,"2 oz. Burnett's Vodka
1/2 oz. Blue Curacao",Shake over ice and strain into Martini glass.  Garnish with orange twist.,Vodka_BlueStarMartini.jpg,228
229,Relaxed,Vodka,Creamy Screwdriver,"2 oz. Burnett's Vodka
6 oz. Orange Juice
1 small Egg Yolk, slightly beaten
3/4 cup Finely Cracked Ice
1 tsp. Sugar","Put orange juice, egg yolk, vodka, cracked ice and sugar into a blender.  Blend 20 seconds.  Pour over two or three ice cubes in a tall glass.  Add more ice as necessary.",Vodka_CreamyScrewdriver.jpg,229
230,Relaxed,Vodka,Vodka Old-Fashioned,"2 oz. Burnett's Vodka
1/2 tsp. Sugar
2 dashes Bitters
1 tsp. Water","Dissolve sugar with bitters and water in old fashioned glass.  Add vodka.  Fill glass to rim with cubes, or coarsely cracked pieces of ice.  Stir well.  Twist lemon peel above drink and drop in glass.",Vodka_VodkaOldFashioned.jpg,230
231,Relaxed,Vodka,Beachcomber,"1/2 oz. Burnett's Vodka
3 oz. Dry Red Wine
3 oz. Cranberry Juice","Stir red wine, cranberry juice and vodka in a chilled highball glass with ice.  Garnish with a lemon twist.",Vodka_Beachcomber.jpg,231
232,Relaxed,Vodka,Banana Balm,"1 1/2 oz. Burnett's Vodka
1/2 oz. Banana Liqueur
1 tsp. Lime Juice
Club soda","Mix vodka, banana liqueur and lime juice with cracked ice in a shaker or blender.  Pour into chilled highball glass.  Fill with club soda.  Stir gently.  Garnish with mint sprig.",Vodka_BananaBalm.jpg,232
233,Relaxed,Vodka,Chiquita,"1 1/2 oz. Burnett's Vodka
2 tsp. Banana Liqueur
2 tsp. Lime Juice
2 oz. Sliced Bananas
1 tsp. Sugar
2 oz. Crushed Ice","Combine vodka, banana liqueur, lime juice, bananas, sugar and ice in blender at low speed for 15 seconds.  Strain mixture and serve straight up.",Vodka_Chiquita.jpg,233
234,Adventurous,Vodka,"
Bloody Blossom","1 1/2 oz. Burnett's Vodka
3 oz. Orange Juice
3 oz. Tomato Juice
Mint Sprig","Mix vodka, orange juice and tomato juice in a shaker or blender with cracked ice and pour into a Collins glass.  Garnish with mint.",Vodka_BoodyBlossom.jpg,234
235,Adventurous,Vodka,Vodka Cooler,"2 oz. Burnett's Vodka              
1/2 tsp. Powdered Sugar
2 oz. Sparkling Water
Spiral of Orange Peel",Put powdered sugar and sparkling water into a collins glass and stir. Fill glass with ice and and vodka.  Fill with sparkling water and stir again. Insert spiral of orange peel and dangle end over rim of glass.,Vodka_VodkaCooler.jpg,235
236,Adventurous,Vodka,Twister,"2 oz. Burnett's Vodka
1/3 oz. Fresh Lime Juice
Lemon-Lime Soda
Lime Rind","Pour vodka and lime juice into a Collins glass.  Add several cubes of ice, and lime rind.  Fill with lemon-lime soda and stir.",Vodka_Twister.jpg,236
237,Adventurous,Vodka,Burnett's & Cranberry,"1 1/2 oz. Burnett's Vodka
Cranberry Juice",Pour vodka over ice into a tall glass and add cranberry juice to fill. Stir gently and garnish with a lime slice.,Vodka_BurnettsCranberry.jpg,237
238,Adventurous,Vodka,Lemon Drop Martini,"2 oz. Burnett's Vodka
1/2 oz. Triple Sec
1 oz. Sweet & Sour Mix
2 tsp. Fresh Lemon Juice",Shake well with ice in a shaker and strain into a chilled martini glass. Rim with sugar and garnish with a lemon slice.,Vodka_LemonDropMartini.jpg,238
239,Adventurous,Vodka,Burnett's & Tonic,"1 1/2 oz. Burnett's Vodka
Tonic Water",Pour vodka over ice into a tall glass and add tonic water to fill. Stir gently and garnish with a lime slice.,Vodka_BurnettsTonic.jpg,239
240,Adventurous,Vodka,Tropical Screwdriver ,"1 1/2 oz. Burnett's Vodka
1 oz. Melon Liqueur
Orange Juice",Pour vodka and melon liqueur over ice into a tall glass and add orange juice to fill. Stir gently and garnish with an orange slice.,Vodka_TropicalScrewdriver.jpg,240
325,Ruby Red Grapefruit,Flavored Vodkas,Grapefruit Fizz,"2 oz. Burnett’s Ruby Red Grapefruit Vodka
3 oz. Tonic",Mix ingredients and serve over ice.,Grapefruit_Fizz.png,1
326,Ruby Red Grapefruit,Flavored Vodkas,Ruby Red Breeze,"2 oz. Burnett’s Ruby Red Grapefruit Vodka
2 oz. Ruby Red Grapefruit Juice
2 oz. Lemon Lime Soda",Mix ingredients in a shaker then pour over ice.,Ruby_Red_Breeze.png,2
327,Ruby Red Grapefruit,Flavored Vodkas,Grapefruit Chiller,"2 oz. Burnett’s Ruby Red Grapefruit Vodka
2 oz. Cranberry Juice
2 oz. Tonic",Mix ingredients in a shaker then pour over ice.,Grapefruit_Chiller.png,3
328,Ruby Red Grapefruit,Flavored Vodkas,Grape-Cran Splash,"2 oz. Burnett’s Ruby Red Grapefruit Vodka
2 oz. Ruby Red Grapefruit Juice
2 oz. Cranberry Juice
Splash of Lime",Pour ingredients in a glass over ice and stir. Garnish with a Lime.,Grape-Cran_Splash.png,4
334,Mango Pineapple,Flavored Vodkas,Pineapple Punch,"2 oz. Burnett’s Mango Pineapple Vodka
4 oz. Pineapple Juice",Pour ingredients in a glass over ice and stir.,Pineapple_Punch.png,1
335,Mango Pineapple,Flavored Vodkas,Pina Mango-lada,"1 oz. Burnett’s Mango Pineapple Vodka
1 oz. Coconut Rum
4 oz. Orange Juice
Splash of Grenadine",Add grenadine to bottom of a highball glass filled with ice. Add remaining ingredients and stir.,Pina_Mango-lada.png,1
336,Mango Pineapple,Flavored Vodkas,Tropic Chiller,"2 oz. Burnett’s Mango Pineapple Vodka
2 oz. Orange Juice
2 oz. Lemon Lime Soda",Pour ingredients in a glass over crushed ice and stir.,Tropic Chiller.png,1
337,Mango Pineapple,Flavored Vodkas,Lemonade Twist,"2 oz. Burnett’s Mango Pineapple Vodka
4 oz. Lemonade",Pour ingredients in a glass over ice and stir.,Lemonade_Twist.png,1
338,Mango Pineapple,Flavored Vodkas,Fruity Fizz,"2 oz. Burnett’s Mango Pineapple Vodka
4 oz. Tonic
Splash of Lime",Pour ingredients in a glass over ice and stir. Garnish with a Lime.,Fruity_Fizz.png,1
339,Mango Pineapple,Flavored Vodkas,Cran-Mango Martini,"2 oz. Burnett’s Mango Pineapple Vodka
2 oz. Cranberry Juice",Shake ingredients over ice then strain into martini glass.,Cran-Mango_Martini.png,1
329,Red Berry,Flavored Vodkas,Cran-Berry Blast,"2 oz. Burnett’s Red Berry Vodka
2 oz. Lemon Lime Soda
Splash of Cranberry Juice",Mix ingredients and pour in a glass over ice.,Cran-Berry_Blast.png,1
330,Red Berry,Flavored Vodkas,Berry Lemonade,"2 oz. Burnett’s Red Berry Vodka
3 oz. Lemonade",Pour ingredients in a glass filled with ice and stir.,Berry_Lemonade.png,1
331,Red Berry,Flavored Vodkas,Red Berry Cooler,"1 1/2 oz. Burnett’s Red Berry Vodka
1 1/2 oz. PAMA Pomegranate Liqueur
1/2 oz. Orange Juice",Shake ingredients and pour over ice.,Red_Berry_Cooler.png,1
332,Red Berry,Flavored Vodkas,Berry Orange Fizz,"2 oz. Burnett’s Red Berry Vodka
4 oz. Orange Juice",Pour ingredients in a glass filled with ice and stir.,Berry_Orange_Fizz.png,1
333,Red Berry,Flavored Vodkas,Red Berry Splash,"2 oz. Burnett’s Red Berry Vodka
3 oz. Club Soda
Splash Grenadine",Shake ingredients and pour over ice.,Red_Berry_Splash.png,1